[
    {
      "id": 1,
      "name": "Leanne Graham",
      "username": "Bret",
      "email": "Sincere@april.biz",
      "address": {
        "street": "Kulas Light",
        "city": "Gwenborough"
      },
      "phone": "1-770-736-8031",
      "website": "hildegard.org",
      "image": ""
    },
    {
      "id": 2,
      "name": "Ervin Howell",
      "username": "Antonette",
      "email": "Shanna@melissa.tv",
      "address": {
        "street": "Victor Plains",
        "city": "Wisokyburgh"
      },
      "phone": "010-692-6593",
      "website": "anastasia.net",
      "image": ""
    },
    {
      "id": 3,
      "name": "Clementine Bauch",
      "username": "Samantha",
      "email": "Nathan@yesenia.net",
      "address": {
        "street": "Douglas Extension",
        "city": "McKenziehaven"
      },
      "phone": "1-463-123-4447",
      "website": "ramiro.info",
      "image": ""
    },
    {
      "id": 4,
      "name": "Patricia Lebsack",
      "username": "Karianne",
      "email": "Julianne.OConner@kory.org",
      "address": {
        "street": "Hoeger Mall",
        "city": "South Elvis",
        "zipcode": "53919-4257"
      },
      "phone": "493-170-9623",
      "website": "kale.biz",
      "image": ""
    },
    {
      "id": 5,
      "name": "Chelsey Dietrich",
      "username": "Kamren",
      "email": "Lucio_Hettinger@annie.ca",
      "address": {
        "street": "Skiles Walks",
        "city": "Roscoeview"
      },
      "phone": "(254)954-1289",
      "website": "demarco.info",
      "image": ""
    },
    {
      "id": 6,
      "name": "Mrs. Dennis Schulist",
      "username": "Leopoldo_Corkery",
      "email": "Karley_Dach@jasper.info",
      "address": {
        "street": "Norberto Crossing",
        "city": "South Christy"
      },
      "phone": "1-477-935-8478",
      "website": "ola.org",
      "image": ""
    },
    {
      "id": 7,
      "name": "Kurtis Weissnat",
      "username": "Elwyn.Skiles",
      "email": "Telly.Hoeger@billy.biz",
      "address": {
        "street": "Rex Trail",
        "city": "Howemouth"
      },
      "phone": "210.067.6132",
      "website": "elvis.io",
      "image": ""
    },
    {
      "id": 8,
      "name": "Nicholas Runolfsdottir V",
      "username": "Maxime_Nienow",
      "email": "Sherwood@rosamond.me",
      "address": {
        "street": "Ellsworth Summit",
        "city": "Aliyaview"
      },
      "phone": "586.493.6943",
      "website": "jacynthe.com",
      "image": ""
    },
    {
      "id": 9,
      "name": "Glenna Reichert",
      "username": "Delphine",
      "email": "Chaim_McDermott@dana.io",
      "address": {
        "street": "Dayna Park",
        "city": "Bartholomebury"
      },
      "phone": "(775)976-6794",
      "website": "conrad.com",
      "image": ""
    },
    {
      "id": 10,
      "name": "Clementina DuBuque",
      "username": "Moriah.Stanton",
      "email": "Rey.Padberg@karina.biz",
      "address": {
        "street": "Kattie Turnpike",
        "city": "Lebsackbury"
      },
      "phone": "024-648-3804",
      "website": "ambrose.net",
      "image": ""
    }
  ]